%YAML 1.1
%TAG !u! tag:unity3d.com,2011:
--- !u!29 &1
OcclusionCullingSettings:
  m_ObjectHideFlags: 0
  serializedVersion: 2
  m_OcclusionBakeSettings:
    smallestOccluder: 5
    smallestHole: 0.25
    backfaceThreshold: 100
  m_SceneGUID: 00000000000000000000000000000000
  m_OcclusionCullingData: {fileID: 0}
--- !u!104 &2
RenderSettings:
  m_ObjectHideFlags: 0
  serializedVersion: 9
  m_Fog: 0
  m_FogColor: {r: 0.5, g: 0.5, b: 0.5, a: 1}
  m_FogMode: 3
  m_FogDensity: 0.01
  m_LinearFogStart: 0
  m_LinearFogEnd: 300
  m_AmbientSkyColor: {r: 0.212, g: 0.227, b: 0.259, a: 1}
  m_AmbientEquatorColor: {r: 0.114, g: 0.125, b: 0.133, a: 1}
  m_AmbientGroundColor: {r: 0.047, g: 0.043, b: 0.035, a: 1}
  m_AmbientIntensity: 1
  m_AmbientMode: 0
  m_SubtractiveShadowColor: {r: 0.42, g: 0.478, b: 0.627, a: 1}
  m_SkyboxMaterial: {fileID: 2100000, guid: a07fadb24ea940240afba3afc1a692cc, type: 2}
  m_HaloStrength: 0.5
  m_FlareStrength: 1
  m_FlareFadeSpeed: 3
  m_HaloTexture: {fileID: 0}
  m_SpotCookie: {fileID: 10001, guid: 0000000000000000e000000000000000, type: 0}
  m_DefaultReflectionMode: 0
  m_DefaultReflectionResolution: 128
  m_ReflectionBounces: 1
  m_ReflectionIntensity: 1
  m_CustomReflection: {fileID: 0}
  m_Sun: {fileID: 170076734}
  m_IndirectSpecularColor: {r: 0.053389944, g: 0.15094802, b: 0.19478062, a: 1}
  m_UseRadianceAmbientProbe: 0
--- !u!157 &3
LightmapSettings:
  m_ObjectHideFlags: 0
  serializedVersion: 11
  m_GIWorkflowMode: 0
  m_GISettings:
    serializedVersion: 2
    m_BounceScale: 1
    m_IndirectOutputScale: 1
    m_AlbedoBoost: 1
    m_EnvironmentLightingMode: 0
    m_EnableBakedLightmaps: 1
    m_EnableRealtimeLightmaps: 0
  m_LightmapEditorSettings:
    serializedVersion: 10
    m_Resolution: 2
    m_BakeResolution: 10
    m_AtlasSize: 512
    m_AO: 0
    m_AOMaxDistance: 1
    m_CompAOExponent: 1
    m_CompAOExponentDirect: 0
    m_Padding: 2
    m_LightmapParameters: {fileID: 0}
    m_LightmapsBakeMode: 1
    m_TextureCompression: 1
    m_FinalGather: 0
    m_FinalGatherFiltering: 1
    m_FinalGatherRayCount: 256
    m_ReflectionCompression: 2
    m_MixedBakeMode: 2
    m_BakeBackend: 1
    m_PVRSampling: 1
    m_PVRDirectSampleCount: 32
    m_PVRSampleCount: 256
    m_PVRBounces: 2
    m_PVRFilterTypeDirect: 0
    m_PVRFilterTypeIndirect: 0
    m_PVRFilterTypeAO: 0
    m_PVRFilteringMode: 1
    m_PVRCulling: 1
    m_PVRFilteringGaussRadiusDirect: 1
    m_PVRFilteringGaussRadiusIndirect: 5
    m_PVRFilteringGaussRadiusAO: 2
    m_PVRFilteringAtrousPositionSigmaDirect: 0.5
    m_PVRFilteringAtrousPositionSigmaIndirect: 2
    m_PVRFilteringAtrousPositionSigmaAO: 1
    m_ShowResolutionOverlay: 1
  m_LightingDataAsset: {fileID: 0}
  m_UseShadowmask: 1
--- !u!196 &4
NavMeshSettings:
  serializedVersion: 2
  m_ObjectHideFlags: 0
  m_BuildSettings:
    serializedVersion: 2
    agentTypeID: 0
    agentRadius: 0.5
    agentHeight: 2
    agentSlope: 45
    agentClimb: 0.4
    ledgeDropHeight: 0
    maxJumpAcrossDistance: 0
    minRegionArea: 2
    manualCellSize: 0
    cellSize: 0.16666667
    manualTileSize: 0
    tileSize: 256
    accuratePlacement: 0
    debug:
      m_Flags: 0
  m_NavMeshData: {fileID: 0}
--- !u!1 &170076733
GameObject:
  m_ObjectHideFlags: 0
  m_CorrespondingSourceObject: {fileID: 0}
  m_PrefabInstance: {fileID: 0}
  m_PrefabAsset: {fileID: 0}
  serializedVersion: 6
  m_Component:
  - component: {fileID: 170076735}
  - component: {fileID: 170076734}
  m_Layer: 0
  m_Name: Directional Light
  m_TagString: Untagged
  m_Icon: {fileID: 0}
  m_NavMeshLayer: 0
  m_StaticEditorFlags: 0
  m_IsActive: 1
--- !u!108 &170076734
Light:
  m_ObjectHideFlags: 0
  m_CorrespondingSourceObject: {fileID: 0}
  m_PrefabInstance: {fileID: 0}
  m_PrefabAsset: {fileID: 0}
  m_GameObject: {fileID: 170076733}
  m_Enabled: 1
  serializedVersion: 8
  m_Type: 1
  m_Color: {r: 1, g: 0.95686275, b: 0.8392157, a: 1}
  m_Intensity: 1
  m_Range: 10
  m_SpotAngle: 30
  m_CookieSize: 10
  m_Shadows:
    m_Type: 2
    m_Resolution: -1
    m_CustomResolution: -1
    m_Strength: 1
    m_Bias: 0.05
    m_NormalBias: 0.4
    m_NearPlane: 0.2
  m_Cookie: {fileID: 0}
  m_DrawHalo: 0
  m_Flare: {fileID: 0}
  m_RenderMode: 0
  m_CullingMask:
    serializedVersion: 2
    m_Bits: 4294967295
  m_Lightmapping: 1
  m_LightShadowCasterMode: 0
  m_AreaSize: {x: 1, y: 1}
  m_BounceIntensity: 1
  m_ColorTemperature: 6570
  m_UseColorTemperature: 0
  m_ShadowRadius: 0
  m_ShadowAngle: 0
--- !u!4 &170076735
Transform:
  m_ObjectHideFlags: 0
  m_CorrespondingSourceObject: {fileID: 0}
  m_PrefabInstance: {fileID: 0}
  m_PrefabAsset: {fileID: 0}
  m_GameObject: {fileID: 170076733}
  m_LocalRotation: {x: 0.40821788, y: -0.23456968, z: 0.10938163, w: 0.8754261}
  m_LocalPosition: {x: 0, y: 3, z: 0}
  m_LocalScale: {x: 1, y: 1, z: 1}
  m_Children: []
  m_Father: {fileID: 0}
  m_RootOrder: 2
  m_LocalEulerAnglesHint: {x: 50, y: -30, z: 0}
--- !u!1 &651075075 stripped
GameObject:
  m_CorrespondingSourceObject: {fileID: 2269983357000837265, guid: 933798c5b19b0e348be6a86548e0dda3,
    type: 3}
  m_PrefabInstance: {fileID: 2269983358046862203}
  m_PrefabAsset: {fileID: 0}
--- !u!114 &651075083
MonoBehaviour:
  m_ObjectHideFlags: 0
  m_CorrespondingSourceObject: {fileID: 0}
  m_PrefabInstance: {fileID: 0}
  m_PrefabAsset: {fileID: 0}
  m_GameObject: {fileID: 651075075}
  m_Enabled: 1
  m_EditorHideFlags: 0
  m_Script: {fileID: 11500000, guid: ddd57d9bb83cda246a2426023766ca9f, type: 3}
  m_Name: 
  m_EditorClassIdentifier: 
--- !u!1001 &1951342207
PrefabInstance:
  m_ObjectHideFlags: 0
  serializedVersion: 2
  m_Modification:
    m_TransformParent: {fileID: 0}
    m_Modifications:
    - target: {fileID: 8417852600976499933, guid: 2063244cfd37542439fd91309a182d9b,
        type: 3}
      propertyPath: m_Name
      value: Mothership
      objectReference: {fileID: 0}
    - target: {fileID: 8417852600976341245, guid: 2063244cfd37542439fd91309a182d9b,
        type: 3}
      propertyPath: m_LocalPosition.x
      value: 2.5607016
      objectReference: {fileID: 0}
    - target: {fileID: 8417852600976341245, guid: 2063244cfd37542439fd91309a182d9b,
        type: 3}
      propertyPath: m_LocalPosition.y
      value: 12.363387
      objectReference: {fileID: 0}
    - target: {fileID: 8417852600976341245, guid: 2063244cfd37542439fd91309a182d9b,
        type: 3}
      propertyPath: m_LocalPosition.z
      value: -102.96
      objectReference: {fileID: 0}
    - target: {fileID: 8417852600976341245, guid: 2063244cfd37542439fd91309a182d9b,
        type: 3}
      propertyPath: m_LocalRotation.x
      value: 0
      objectReference: {fileID: 0}
    - target: {fileID: 8417852600976341245, guid: 2063244cfd37542439fd91309a182d9b,
        type: 3}
      propertyPath: m_LocalRotation.y
      value: 0
      objectReference: {fileID: 0}
    - target: {fileID: 8417852600976341245, guid: 2063244cfd37542439fd91309a182d9b,
        type: 3}
      propertyPath: m_LocalRotation.z
      value: 0
      objectReference: {fileID: 0}
    - target: {fileID: 8417852600976341245, guid: 2063244cfd37542439fd91309a182d9b,
        type: 3}
      propertyPath: m_LocalRotation.w
      value: 1
      objectReference: {fileID: 0}
    - target: {fileID: 8417852600976341245, guid: 2063244cfd37542439fd91309a182d9b,
        type: 3}
      propertyPath: m_RootOrder
      value: 1
      objectReference: {fileID: 0}
    - target: {fileID: 8417852600976341245, guid: 2063244cfd37542439fd91309a182d9b,
        type: 3}
      propertyPath: m_LocalEulerAnglesHint.x
      value: 0
      objectReference: {fileID: 0}
    - target: {fileID: 8417852600976341245, guid: 2063244cfd37542439fd91309a182d9b,
        type: 3}
      propertyPath: m_LocalEulerAnglesHint.y
      value: 0
      objectReference: {fileID: 0}
    - target: {fileID: 8417852600976341245, guid: 2063244cfd37542439fd91309a182d9b,
        type: 3}
      propertyPath: m_LocalEulerAnglesHint.z
      value: 0
      objectReference: {fileID: 0}
    m_RemovedComponents: []
  m_SourcePrefab: {fileID: 100100000, guid: 2063244cfd37542439fd91309a182d9b, type: 3}
--- !u!1001 &2269983358046862203
PrefabInstance:
  m_ObjectHideFlags: 0
  serializedVersion: 2
  m_Modification:
    m_TransformParent: {fileID: 0}
    m_Modifications:
    - target: {fileID: 2269983357000837265, guid: 933798c5b19b0e348be6a86548e0dda3,
        type: 3}
      propertyPath: m_Name
      value: PlayerShip_Prefab
      objectReference: {fileID: 0}
    - target: {fileID: 2269983357000837265, guid: 933798c5b19b0e348be6a86548e0dda3,
        type: 3}
      propertyPath: m_TagString
      value: Untagged
      objectReference: {fileID: 0}
    - target: {fileID: 2269983357000837270, guid: 933798c5b19b0e348be6a86548e0dda3,
        type: 3}
      propertyPath: m_LocalPosition.x
      value: 32.64
      objectReference: {fileID: 0}
    - target: {fileID: 2269983357000837270, guid: 933798c5b19b0e348be6a86548e0dda3,
        type: 3}
      propertyPath: m_LocalPosition.y
      value: 5.77
      objectReference: {fileID: 0}
    - target: {fileID: 2269983357000837270, guid: 933798c5b19b0e348be6a86548e0dda3,
        type: 3}
      propertyPath: m_LocalPosition.z
      value: -101.83
      objectReference: {fileID: 0}
    - target: {fileID: 2269983357000837270, guid: 933798c5b19b0e348be6a86548e0dda3,
        type: 3}
      propertyPath: m_LocalRotation.x
      value: -0
      objectReference: {fileID: 0}
    - target: {fileID: 2269983357000837270, guid: 933798c5b19b0e348be6a86548e0dda3,
        type: 3}
      propertyPath: m_LocalRotation.y
      value: 0.9984913
      objectReference: {fileID: 0}
    - target: {fileID: 2269983357000837270, guid: 933798c5b19b0e348be6a86548e0dda3,
        type: 3}
      propertyPath: m_LocalRotation.z
      value: -0
      objectReference: {fileID: 0}
    - target: {fileID: 2269983357000837270, guid: 933798c5b19b0e348be6a86548e0dda3,
        type: 3}
      propertyPath: m_LocalRotation.w
      value: -0.054910365
      objectReference: {fileID: 0}
    - target: {fileID: 2269983357000837270, guid: 933798c5b19b0e348be6a86548e0dda3,
        type: 3}
      propertyPath: m_RootOrder
      value: 0
      objectReference: {fileID: 0}
    - target: {fileID: 2269983357000837270, guid: 933798c5b19b0e348be6a86548e0dda3,
        type: 3}
      propertyPath: m_LocalEulerAnglesHint.x
      value: 0
      objectReference: {fileID: 0}
    - target: {fileID: 2269983357000837270, guid: 933798c5b19b0e348be6a86548e0dda3,
        type: 3}
      propertyPath: m_LocalEulerAnglesHint.y
      value: 186.295
      objectReference: {fileID: 0}
    - target: {fileID: 2269983357000837270, guid: 933798c5b19b0e348be6a86548e0dda3,
        type: 3}
      propertyPath: m_LocalEulerAnglesHint.z
      value: 0
      objectReference: {fileID: 0}
    - target: {fileID: 2269983357000837264, guid: 933798c5b19b0e348be6a86548e0dda3,
        type: 3}
      propertyPath: controlMethod
      value: 0
      objectReference: {fileID: 0}
    - target: {fileID: 2269983357000837264, guid: 933798c5b19b0e348be6a86548e0dda3,
        type: 3}
      propertyPath: MaxSpeed
      value: 0
      objectReference: {fileID: 0}
    - target: {fileID: 2269983357000837269, guid: 933798c5b19b0e348be6a86548e0dda3,
        type: 3}
      propertyPath: ReloadTime
      value: 1
      objectReference: {fileID: 0}
    - target: {fileID: 2269983357151647899, guid: 933798c5b19b0e348be6a86548e0dda3,
        type: 3}
      propertyPath: m_LocalRotation.y
      value: 0
      objectReference: {fileID: 0}
    - target: {fileID: 2269983357151647899, guid: 933798c5b19b0e348be6a86548e0dda3,
        type: 3}
      propertyPath: m_LocalRotation.w
      value: 1
      objectReference: {fileID: 0}
    - target: {fileID: 2269983357151647899, guid: 933798c5b19b0e348be6a86548e0dda3,
        type: 3}
      propertyPath: m_LocalEulerAnglesHint.y
      value: 0
      objectReference: {fileID: 0}
    - target: {fileID: 2269983357151647898, guid: 933798c5b19b0e348be6a86548e0dda3,
        type: 3}
      propertyPath: m_FocalLength
      value: 15.588457
      objectReference: {fileID: 0}
    - target: {fileID: 2269983357151647898, guid: 933798c5b19b0e348be6a86548e0dda3,
        type: 3}
      propertyPath: field of view
      value: 60.000004
      objectReference: {fileID: 0}
    - target: {fileID: 2269983357151647898, guid: 933798c5b19b0e348be6a86548e0dda3,
        type: 3}
      propertyPath: m_AllowDynamicResolution
      value: 1
      objectReference: {fileID: 0}
    - target: {fileID: 2269983357151647898, guid: 933798c5b19b0e348be6a86548e0dda3,
        type: 3}
      propertyPath: far clip plane
      value: 10000
      objectReference: {fileID: 0}
    m_RemovedComponents: []
  m_SourcePrefab: {fileID: 100100000, guid: 933798c5b19b0e348be6a86548e0dda3, type: 3}
